{
  "OuterWall": {
    "default_ps": {
      "ThermalTransmittance" : ["Pset_WallCommon", "ThermalTransmittance"],
      "IsExternal" : ["Pset_WallCommon", "IsExternal"],
      "Length" : ["Qto_WallBaseQuantities", "Length"],
      "Width" : ["Qto_WallBaseQuantities", "Width"],
      "Height" : ["Qto_WallBaseQuantities", "Height"],
      "GrossFootprintArea" : ["Qto_WallBaseQuantities", "GrossFootprintArea"],
      "NetFootprintArea" : ["Qto_WallBaseQuantities", "NetFootprintArea"],
      "GrossSideArea" : ["Qto_WallBaseQuantities", "GrossSideArea"],
      "NetSideArea" : ["Qto_WallBaseQuantities", "NetSideArea"],
      "GrossVolume" : ["Qto_WallBaseQuantities", "GrossVolume"],
      "NetVolume" : ["Qto_WallBaseQuantities", "NetVolume"],
      "GrossWeight" : ["Qto_WallBaseQuantities", "GrossWeight"],
      "NetWeight" : ["Qto_WallBaseQuantities", "NetWeight"],
      "Materiallayerconstruction" : ["MaterialLayerSet", "MaterialLayer"],
      "*Area*" : ["Abmessungen", "Fl\u00e4che"],
      "*Tilt*" : ["Abh\u00e4ngigkeiten", "Querschnitt"],
      "*ThermalResistance R*" : ["Analytische Eigenschaften","Thermischer Widerstand (R)"],
      "*ThermalMass*" : ["Analytische Eigenschaften","Thermisch wirksame Masse"]
    }


  },
  "InnerWall": {
    "default_ps": {
      "ThermalTransmittance" : ["Pset_WallCommon", "ThermalTransmittance"],
      "IsExternal" : ["Pset_WallCommon", "IsExternal"],
      "Length" : ["Qto_WallBaseQuantities", "Length"],
      "Width" : ["Qto_WallBaseQuantities", "Width"],
      "Height" : ["Qto_WallBaseQuantities", "Height"],
      "GrossFootprintArea" : ["Qto_WallBaseQuantities", "GrossFootprintArea"],
      "NetFootprintArea" : ["Qto_WallBaseQuantities", "NetFootprintArea"],
      "GrossSideArea" : ["Qto_WallBaseQuantities", "GrossSideArea"],
      "NetSideArea" : ["Qto_WallBaseQuantities", "NetSideArea"],
      "GrossVolume" : ["Qto_WallBaseQuantities", "GrossVolume"],
      "NetVolume" : ["Qto_WallBaseQuantities", "NetVolume"],
      "GrossWeight" : ["Qto_WallBaseQuantities", "GrossWeight"],
      "NetWeight" : ["Qto_WallBaseQuantities", "NetWeight"],
      "Materiallayerconstruction" : ["MaterialLayerSet", "MaterialLayer"],
      "*Area*": ["Abmessungen", "Fl\u00e4che"],
      "*Tilt*": ["Abh\u00e4ngigkeiten", "Querschnitt"],
      "*ThermalResistance R*": ["Analytische Eigenschaften", "Thermischer Widerstand (R)"],
      "*ThermalMass*": ["Analytische Eigenschaften", "Thermisch wirksame Masse"]
    }
  },
  "Wall": {
    "default_ps": {
      "ThermalTransmittance" : ["Pset_WallCommon", "ThermalTransmittance"],
      "IsExternal" : ["Pset_WallCommon", "IsExternal"],
      "Length" : ["Qto_WallBaseQuantities", "Length"],
      "Width" : ["Qto_WallBaseQuantities", "Width"],
      "Height" : ["Qto_WallBaseQuantities", "Height"],
      "GrossFootprintArea" : ["Qto_WallBaseQuantities", "GrossFootprintArea"],
      "NetFootprintArea" : ["Qto_WallBaseQuantities", "NetFootprintArea"],
      "GrossSideArea" : ["Qto_WallBaseQuantities", "GrossSideArea"],
      "NetSideArea" : ["Qto_WallBaseQuantities", "NetSideArea"],
      "GrossVolume" : ["Qto_WallBaseQuantities", "GrossVolume"],
      "NetVolume" : ["Qto_WallBaseQuantities", "NetVolume"],
      "GrossWeight" : ["Qto_WallBaseQuantities", "GrossWeight"],
      "NetWeight" : ["Qto_WallBaseQuantities", "NetWeight"],
      "Materiallayerconstruction" : ["MaterialLayerSet", "MaterialLayer"],
      "*Area*": ["Abmessungen", "Fl\u00e4che"],
      "*Tilt*": ["Abh\u00e4ngigkeiten", "Querschnitt"],
      "*ThermalResistance R*": ["Analytische Eigenschaften", "Thermischer Widerstand (R)"],
      "*ThermalMass*": ["Analytische Eigenschaften", "Thermisch wirksame Masse"]
    }
  },
  "Roof_ifcSlab": {
    "default_ps": {
      "ThermalTransmittance" : ["Pset_SlabCommon", "ThermalTransmittance"],
      "IsExternal" : ["Pset_SlabCommon", "IsExternal"],
      "Width" : ["Qto_SlabBaseQuantities", "Width"],
      "Length" : ["Qto_SlabBaseQuantities", "Length"],
      "Depth" : ["Qto_SlabBaseQuantities", "Depth"],
      "Perimeter" : ["Qto_SlabBaseQuantities", "Perimeter"],
      "GrossArea" : ["Qto_SlabBaseQuantities", "GrossArea"],
      "NetArea" : ["Qto_SlabBaseQuantities", "NetArea"],
      "GrossVolume" : ["Qto_SlabBaseQuantities", "GrossVolume"],
      "NetVolume" : ["Qto_SlabBaseQuantities", "NetVolume"],
      "GrossWeight" : ["Qto_SlabBaseQuantities", "GrossWeight"],
      "NetWeight" : ["Qto_SlabBaseQuantities", "NetWeight"],
      "Materiallayerconstruction" : ["MaterialLayerSet", "MaterialLayer"],
      "*Area*": ["Abmessungen", "Fl\u00e4che"],
      "*Width*": ["Abmessungen", "Dicke"]
      }
  },
    "Roof": {
    "default_ps": {
      "ThermalTransmittance" : ["Pset_RoofCommon", "ThermalTransmittance"],
      "IsExternal" : ["Pset_RoofCommon", "IsExternal"],
      "GrossArea" : ["Qto_RoofBaseQuantities", "GrossArea"],
      "NetArea" : ["Qto_RoofBaseQuantities", "NetArea"],
      "ProjectedArea" : ["Qto_RoofBaseQuantities", "ProjectedArea"],
      "Materiallayerconstruction" : ["MaterialLayerSet", "MaterialLayer"],
      "*Area*": ["Abmessungen", "Fl\u00e4che"],
      "*Width*": ["Abmessungen", "Dicke"]
      }
  },
  "Floor": {
    "default_ps": {
      "ThermalTransmittance" : ["Pset_SlabCommon", "ThermalTransmittance"],
      "IsExternal" : ["Pset_SlabCommon", "IsExternal"],
      "Width" : ["Qto_SlabBaseQuantities", "Width"],
      "Length" : ["Qto_SlabBaseQuantities", "Length"],
      "Depth" : ["Qto_SlabBaseQuantities", "Depth"],
      "Perimeter" : ["Qto_SlabBaseQuantities", "Perimeter"],
      "GrossArea" : ["Qto_SlabBaseQuantities", "GrossArea"],
      "NetArea" : ["Qto_SlabBaseQuantities", "NetArea"],
      "GrossVolume" : ["Qto_SlabBaseQuantities", "GrossVolume"],
      "NetVolume" : ["Qto_SlabBaseQuantities", "NetVolume"],
      "GrossWeight" : ["Qto_SlabBaseQuantities", "GrossWeight"],
      "NetWeight" : ["Qto_SlabBaseQuantities", "NetWeight"],
      "Materiallayerconstruction" : ["MaterialLayerSet", "MaterialLayer"],
      "*Area*": ["Abmessungen", "Fl\u00e4che"],
      "*Width*": ["Abmessungen", "Dicke"]
      }
  },
  "GroundFloor": {
    "default_ps": {
      "ThermalTransmittance" : ["Pset_SlabCommon", "ThermalTransmittance"],
      "IsExternal" : ["Pset_SlabCommon", "IsExternal"],
      "Width" : ["Qto_SlabBaseQuantities", "Width"],
      "Length" : ["Qto_SlabBaseQuantities", "Length"],
      "Depth" : ["Qto_SlabBaseQuantities", "Depth"],
      "Perimeter" : ["Qto_SlabBaseQuantities", "Perimeter"],
      "GrossArea" : ["Qto_SlabBaseQuantities", "GrossArea"],
      "NetArea" : ["Qto_SlabBaseQuantities", "NetArea"],
      "GrossVolume" : ["Qto_SlabBaseQuantities", "GrossVolume"],
      "NetVolume" : ["Qto_SlabBaseQuantities", "NetVolume"],
      "GrossWeight" : ["Qto_SlabBaseQuantities", "GrossWeight"],
      "NetWeight" : ["Qto_SlabBaseQuantities", "NetWeight"],
      "Materiallayerconstruction" : ["MaterialLayerSet", "MaterialLayer"],
      "*Area*": ["Abmessungen", "Fl\u00e4che"],
      "*Width*": ["Abmessungen", "Dicke"]
      }
  },

  "Window": {
    "default_ps": {
      "ThermalTransmittance" : ["Pset_WindowCommon", "ThermalTransmittance"],
      "IsExternal" : ["Pset_WindowCommon", "IsExternal"],
      "Infiltration" : ["Pset_WindowCommon", "Infiltration"],
      "Width" : ["Qto_WindowBaseQuantities", "Width"],
      "Height" : ["Qto_WindowBaseQuantities", "Height"],
      "Perimeter" : ["Qto_WindowBaseQuantities", "Perimeter"],
      "Area" : ["Qto_WindowBaseQuantities", "Area"],
      "Materiallayerconstruction" : ["MaterialLayerSet", "MaterialLayer"]
    }
  },

  "Door": {
    "default_ps": {
      "ThermalTransmittance" : ["Pset_DoorCommon", "ThermalTransmittance"],
      "IsExternal" : ["Pset_DoorCommon", "IsExternal"],
      "Infiltration" : ["Pset_DoorCommon", "Infiltration"],
      "Width" : ["Qto_DoorBaseQuantities", "Width"],
      "Height" : ["Qto_DoorBaseQuantities", "Height"],
      "Perimeter" : ["Qto_DoorBaseQuantities", "Perimeter"],
      "Area" : ["Qto_DoorBaseQuantities", "Area"],
      "Materiallayerconstruction" : ["MaterialLayerSet", "MaterialLayer"]
    }
  },


  "ThermalZone": {
    "default_ps": {
      "Reference" : ["Pset_SpaceCommon", "Reference"],
      "IsExternal" : ["Pset_SpaceCommon", "IsExternal"],
      "GrossPlannedArea" : ["Pset_SpaceCommon", "GrossPlannedArea"],
      "NetPlannedArea" : ["Pset_SpaceCommon", "NetPlannedArea"],
      "OccupancyType" : ["Pset_SpaceOccupancyRequirements", "OccupancyType"],
      "OccupancyNumber" : ["Qto_DoorBaseQuantities", "OccupancyNumber"],
      "OccupancyNumberPeak" : ["Pset_SpaceOccupancyRequirements", "OccupancyNumberPeak"],
      "OccupancyTimePerDay" : ["Pset_SpaceOccupancyRequirements", "OccupancyTimePerDay"],
      "AreaPerOccupant" : ["Pset_SpaceOccupancyRequirements", "AreaPerOccupant"],
      "SpaceTemperatureMax" : ["Pset_SpaceThermalRequirements", "SpaceTemperatureMax"],
      "SpaceTemperatureMin" : ["Pset_SpaceThermalRequirements", "SpaceTemperatureMin"],
      "NaturalVentilationRate" : ["Pset_SpaceThermalRequirements", "NaturalVentilationRate"],
      "MechanicalVentilationRate" : ["Pset_SpaceThermalRequirements", "MechanicalVentilationRate"],
      "People" : ["Pset_SpaceThermalLoad", "People"],
      "RelativeHumidity" : ["Pset_SpaceThermalLoad", "RelativeHumidity"],
      "Height" : ["Qto_SpaceBaseQuantities", "Height"],
      "GrossPerimeter" : ["Qto_SpaceBaseQuantities", "GrossPerimeter"],
      "NetPerimeter" : ["Qto_SpaceBaseQuantities", "NetPerimeter"],
      "GrossFloorArea" : ["Qto_SpaceBaseQuantities", "GrossFloorArea"],
      "NetFloorArea" : ["Qto_SpaceBaseQuantities", "NetFloorArea"],
      "GrossWallArea" : ["Qto_SpaceBaseQuantities", "GrossWallArea"],
      "NetWallArea" : ["Qto_SpaceBaseQuantities", "NetWallArea"],
      "GrossVolume" : ["Qto_SpaceBaseQuantities", "GrossVolume"],
      "NetVolume" : ["Qto_SpaceBaseQuantities", "NetVolume"],
      "*Name*": ["ID-Daten", "Name"],
      "*Area*": ["Abmessungen", "Fl\u00e4che"],
      "*Perimeter*": ["Abmessungen", "Umfang"],
      "*NetHeight*": ["Abmessungen", "Lichte H\u00d6he"]
    }
  },

  "Building": {
    "default_ps": {
      "OccupancyType" : ["Pset_BuildingCommon", "OccupancyType"],
      "GrossPlannedArea" : ["Pset_BuildingCommon", "GrossPlannedArea"],
      "NetPlannedArea" : ["Pset_BuildingCommon", "NetPlannedArea"],
      "NumberOfStoreys" : ["Pset_BuildingCommon", "NumberOfStoreys"],
      "YearOfConstruction" : ["Pset_BuildingCommon", "YearOfConstruction"],
      "Height" : ["Qto_BuildingBaseQuantities", "Height"],
      "FootprintArea" : ["Qto_BuildingBaseQuantities", "FootprintArea"],
      "GrossFloorArea" : ["Qto_BuildingBaseQuantities", "GrossFloorArea"],
      "NetFloorArea" : ["Qto_BuildingBaseQuantities", "NetFloorArea"],
      "GrossVolume" : ["Qto_BuildingBaseQuantities", "GrossVolume"],
      "NetVolume" : ["Qto_BuildingBaseQuantities", "NetVolume"]
    }
  },

  "Storey": {
    "default_ps": {
      "GrossPlannedArea" : ["Pset_BuildingStoreyCommon", "GrossPlannedArea"],
      "NetPlannedArea" : ["Pset_BuildingStoreyCommon", "NetPlannedArea"],
      "GrossHeight" : ["Qto_BuildingStoreyBaseQuantities", "GrossHeight"],
      "NetHeight" : ["Qto_BuildingStoreyBaseQuantities", "NetHeight"],
      "GrossPerimeter" : ["Qto_BuildingStoreyBaseQuantities", "GrossPerimeter"],
      "GrossFloorArea" : ["Qto_BuildingStoreyBaseQuantities", "GrossFloorArea"],
      "NetFloorArea" : ["Qto_BuildingStoreyBaseQuantities", "NetFloorArea"],
      "GrossVolume" : ["Qto_BuildingStoreyBaseQuantities", "GrossVolume"],
      "NetVolume" : ["Qto_BuildingStoreyBaseQuantities", "NetVolume"]
    }
  },

  "Material": {
    "default_ps": {
      "SpecificHeatCapacity" : ["Pset_MaterialThermal", "SpecificHeatCapacity"],
      "MassDensity" : ["Pset_MaterialCommon", "MassDensity"],
      "ThermalConductivity" : ["Pset_MaterialThermal", "ThermalConductivity"]
    }
  }
}





