{
  "Name": "IFC4 Design Transfer View space",
  "IFCVersion": 26,
  "ExchangeRequirement": 3,
  "IFCFileType": 0,
  "SpaceBoundaries": 2,
  "SitePlacement": 0,
  "ActivePhaseId": {
    "IntegerValue": -1
  },
  "ExportBaseQuantities": true,
  "SplitWallsAndColumns": true,
  "ExportInternalRevitPropertySets": true,
  "ExportIFCCommonPropertySets": true,
  "Export2DElements": false,
  "VisibleElementsOfCurrentView": false,
  "Use2DRoomBoundaryForVolume": true,
  "UseFamilyAndTypeNameForReference": false,
  "ExportPartsAsBuildingElements": false,
  "ExportSolidModelRep": false,
  "ExportSchedulesAsPsets": false,
  "ExportUserDefinedPsets": false,
  "ExportUserDefinedPsetsFileName": false,
  "ExportUserDefinedParameterMapping": true,
  "ExportUserDefinedParameterMappingFileName": "C:\\Users\\Desktop\\ifctricks\\MappingFile.txt",
  "ExportBoundingBox": false,
  "IncludeSiteElevation": false,
  "UseActiveViewGeometry": false,
  "ExportSpecificSchedules": false,
  "TessellationLevelOfDetail": 1,
  "UseOnlyTriangulation": false,
  "StoreIFCGUID": true,
  "ExportRoomsInView": false,
  "ExportLinkedFiles": false,
  "ActiveViewId": -1,
  "ExcludeFilter": "",
  "COBieCompanyInfo": "",
  "COBieProjectInfo": "",
  "IncludeSteelElements": true,
  "UseTypeNameOnlyForIfcType": false,
  "UseVisibleRevitNameAsEntityName": false,
  "GeoRefCRSName": "",
  "GeoRefCRSDesc": "",
  "GeoRefEPSGCode": "",
  "GeoRefGeodeticDatum": "",
  "GeoRefMapUnit": "",
  "IsBuiltIn": false,
  "IsInSession": false,
  "FileVersionDescription": "IFC4 Design Transfer View"
}
